soc_simulation.vcd
$date
	Tue Dec 16 14:22:33 2025
$end
$version
	Icarus Verilog
$end
$timescale
	1ns
$end
$scope module riscv_soc_tb $end
$var wire 1 ! tx_serial $end
$var reg 1 " clk $end
$var reg 1 # rst_n $end
$var reg 8 $ rx_byte [7:0] $end
$var integer 32 % bit_idx [31:0] $end
$scope module uut $end
$var wire 1 " clk $end
$var wire 1 # rst_n $end
$var wire 1 ! tx_serial $end
$var wire 1 & stall_signal $end
$var wire 1 ' pwrite $end
$var wire 32 ( pwdata [31:0] $end
$var wire 1 ) psel $end
$var wire 1 * pready $end
$var wire 32 + prdata [31:0] $end
$var wire 1 , penable $end
$var wire 32 - paddr [31:0] $end
$var wire 1 . is_peripheral $end
$var wire 32 / dmem_rdata [31:0] $end
$var wire 32 0 cpu_wdata [31:0] $end
$var wire 32 1 cpu_pc_addr [31:0] $end
$var wire 1 2 cpu_mem_write $end
$var wire 1 3 cpu_mem_read $end
$var wire 32 4 cpu_instr [31:0] $end
$var wire 32 5 cpu_data_addr [31:0] $end
$var reg 32 6 final_cpu_rdata [31:0] $end
$scope module IMEM $end
$var wire 32 7 rd [31:0] $end
$var wire 32 8 a [31:0] $end
$upscope $end
$scope module bridge $end
$var wire 1 " clk $end
$var wire 1 9 cpu_mem_read $end
$var wire 1 : cpu_mem_write $end
$var wire 1 # rst_n $end
$var wire 1 * pready $end
$var wire 32 ; prdata [31:0] $end
$var wire 32 < cpu_wdata [31:0] $end
$var wire 32 = cpu_addr [31:0] $end
$var parameter 2 > ACCESS $end
$var parameter 2 ? IDLE $end
$var parameter 2 @ SETUP $end
$var reg 32 A cpu_rdata [31:0] $end
$var reg 1 & cpu_stall $end
$var reg 2 B next_state [1:0] $end
$var reg 32 C paddr [31:0] $end
$var reg 1 , penable $end
$var reg 1 ) psel $end
$var reg 32 D pwdata [31:0] $end
$var reg 1 ' pwrite $end
$var reg 2 E state [1:0] $end
$upscope $end
$scope module cpu $end
$var wire 1 " clk $end
$var wire 32 F instr [31:0] $end
$var wire 1 G pcsrc $end
$var wire 32 H read_data [31:0] $end
$var wire 1 # rst_n $end
$var wire 32 I src_a [31:0] $end
$var wire 1 & stall_in $end
$var wire 32 J write_data [31:0] $end
$var wire 32 K result_mux [31:0] $end
$var wire 1 L reg_write $end
$var wire 32 M pc_plus4 [31:0] $end
$var wire 32 N pc_next [31:0] $end
$var wire 32 O pc_branch [31:0] $end
$var wire 32 P pc [31:0] $end
$var wire 1 2 mem_write $end
$var wire 1 Q mem_to_reg $end
$var wire 1 3 mem_read $end
$var wire 1 R is_lui $end
$var wire 32 S imm_ext [31:0] $end
$var wire 1 T branch $end
$var wire 1 U alu_zero $end
$var wire 1 V alu_src $end
$var wire 32 W alu_result [31:0] $end
$var wire 2 X alu_op [1:0] $end
$var wire 32 Y alu_input_b [31:0] $end
$var wire 32 Z alu_input_a [31:0] $end
$var wire 4 [ alu_ctrl [3:0] $end
$scope module ALU $end
$var wire 32 \ a [31:0] $end
$var wire 32 ] b [31:0] $end
$var wire 1 U zero $end
$var wire 4 ^ alu_ctrl [3:0] $end
$var parameter 4 _ ALU_ADD $end
$var parameter 4 ` ALU_AND $end
$var parameter 4 a ALU_OR $end
$var parameter 4 b ALU_SLL $end
$var parameter 4 c ALU_SLT $end
$var parameter 4 d ALU_SLTU $end
$var parameter 4 e ALU_SRA $end
$var parameter 4 f ALU_SRL $end
$var parameter 4 g ALU_SUB $end
$var parameter 4 h ALU_XOR $end
$var reg 32 i result [31:0] $end
$upscope $end
$scope module ALU_DEC $end
$var wire 3 j funct3 [2:0] $end
$var wire 1 k funct7 $end
$var wire 7 l op [6:0] $end
$var wire 2 m alu_op [1:0] $end
$var reg 4 n alu_ctrl [3:0] $end
$upscope $end
$scope module CONTROL $end
$var wire 7 o opcode [6:0] $end
$var reg 2 p alu_op [1:0] $end
$var reg 1 V alu_src $end
$var reg 1 T branch $end
$var reg 1 3 mem_read $end
$var reg 1 Q mem_to_reg $end
$var reg 1 2 mem_write $end
$var reg 1 L reg_write $end
$upscope $end
$scope module IMM_GEN $end
$var wire 32 q instruction [31:0] $end
$var wire 7 r opcode [6:0] $end
$var reg 32 s imm_out [31:0] $end
$upscope $end
$scope module PC $end
$var wire 1 " clk $end
$var wire 32 t next_pc [31:0] $end
$var wire 1 # rst $end
$var wire 1 & stall $end
$var reg 32 u pc [31:0] $end
$upscope $end
$scope module REG_FILE $end
$var wire 5 v a1 [4:0] $end
$var wire 5 w a2 [4:0] $end
$var wire 5 x a3 [4:0] $end
$var wire 1 " clk $end
$var wire 32 y wd3 [31:0] $end
$var wire 1 L we $end
$var wire 32 z rd2 [31:0] $end
$var wire 32 { rd1 [31:0] $end
$var integer 32 | i [31:0] $end
$upscope $end
$upscope $end
$scope module ram $end
$var wire 32 } a [31:0] $end
$var wire 1 " clk $end
$var wire 32 ~ rd [31:0] $end
$var wire 32 !" wd [31:0] $end
$var wire 1 "" we $end
$upscope $end
$scope module uart_device $end
$var wire 1 " clk $end
$var wire 32 #" paddr [31:0] $end
$var wire 1 , penable $end
$var wire 1 ) psel $end
$var wire 32 $" pwdata [31:0] $end
$var wire 1 ' pwrite $end
$var wire 1 # rst_n $end
$var wire 1 ! tx_serial $end
$var wire 1 %" tx_busy $end
$var reg 32 &" prdata [31:0] $end
$var reg 1 * pready $end
$var reg 8 '" tx_data [7:0] $end
$var reg 1 (" tx_start $end
$scope module core $end
$var wire 1 " clk $end
$var wire 1 # rst_n $end
$var wire 8 )" tx_data [7:0] $end
$var wire 1 (" tx_start $end
$var parameter 32 *" BAUD_RATE $end
$var parameter 32 +" CLKS_PER_BIT $end
$var parameter 32 ," CLK_FREQ $end
$var parameter 2 -" DATA $end
$var parameter 2 ." IDLE $end
$var parameter 2 /" START $end
$var parameter 2 0" STOP $end
$var reg 3 1" bit_index [2:0] $end
$var reg 32 2" clk_count [31:0] $end
$var reg 8 3" data_temp [7:0] $end
$var reg 2 4" state [1:0] $end
$var reg 1 %" tx_busy $end
$var reg 1 ! tx_serial $end
$upscope $end
$upscope $end
$upscope $end
$upscope $end
$enddefinitions $end
$comment Show the parameter values. $end
$dumpall
b11 0"
b1 /"
b0 ."
b10 -"
b1100100 ,"
b1010 +"
b1010 *"
b100 h
b1 g
b110 f
b111 e
b1001 d
b1000 c
b101 b
b11 a
b10 `
b0 _
b1 @
b0 ?
b10 >
$end
#0
$dumpvars
b0 4"
b0 3"
b0 2"
b0 1"
b0 )"
0("
b0 '"
bx &"
0%"
b0 $"
b11111111111111110000000000000000 #"
0""
b0 !"
bx ~
b11111111111111110000000000000000 }
b100000 |
b0 {
b0 z
b11111111111111110000000000000000 y
b1 x
b11111 w
b11110 v
b0 u
b100 t
b11111111111111110000000000000000 s
b110111 r
b11111111111111110000000010110111 q
b11 p
b110111 o
b0 n
b11 m
b110111 l
1k
b0 j
b11111111111111110000000000000000 i
b0 ^
b11111111111111110000000000000000 ]
b0 \
b0 [
b0 Z
b11111111111111110000000000000000 Y
b11 X
b11111111111111110000000000000000 W
1V
0U
0T
b11111111111111110000000000000000 S
1R
0Q
b0 P
b11111111111111110000000000000000 O
b100 N
b100 M
1L
b11111111111111110000000000000000 K
b0 J
b0 I
b0 H
0G
b11111111111111110000000010110111 F
b0 E
b0 D
b11111111111111110000000000000000 C
b0 B
bx A
b11111111111111110000000000000000 =
b0 <
bx ;
0:
09
b0 8
b11111111111111110000000010110111 7
b0 6
b11111111111111110000000000000000 5
b11111111111111110000000010110111 4
03
02
b0 1
b0 0
bx /
1.
b11111111111111110000000000000000 -
0,
bx +
0*
0)
b0 (
0'
0&
bx %
bx $
0#
0"
1!
$end
#5
1"
#10
0"
#15
1"
#20
0"
1#
#25
bx 6
bx H
b1001000 K
b1001000 y
0.
b1001000 -
b1001000 C
b1001000 #"
b1001000 5
b1001000 =
b1001000 W
b1001000 i
b1001000 }
1L
1V
b0 X
b0 m
b0 p
b1001000 Y
b1001000 ]
b10011 o
b0 v
b1000 w
b10 x
0k
b10011 l
0R
b1001000 S
b1001000 s
b10011 r
b1000 N
b1000 t
b100100000000000000100010011 4
b100100000000000000100010011 7
b100100000000000000100010011 F
b100100000000000000100010011 q
b1001100 O
b1000 M
b100 1
b100 8
b100 P
b100 u
1"
#30
0"
#35
1&
b1 B
1'
1:
b0 6
b0 H
1.
b11111111111111110000000000000000 K
b11111111111111110000000000000000 y
0""
b11111111111111110000000000000000 Z
b11111111111111110000000000000000 \
b1001000 (
b1001000 D
b1001000 $"
b11111111111111110000000000000000 -
b11111111111111110000000000000000 C
b11111111111111110000000000000000 #"
0U
b11111111111111110000000000000000 5
b11111111111111110000000000000000 =
b11111111111111110000000000000000 W
b11111111111111110000000000000000 i
b11111111111111110000000000000000 }
12
0L
1V
b11111111111111110000000000000000 I
b11111111111111110000000000000000 {
b1001000 0
b1001000 <
b1001000 J
b1001000 z
b1001000 !"
b0 Y
b0 ]
b100011 o
b1 v
b10 w
b0 x
b10 j
b100011 l
b0 S
b0 s
b100011 r
b1100 N
b1100 t
b1000001010000000100011 4
b1000001010000000100011 7
b1000001010000000100011 F
b1000001010000000100011 q
b1000 O
b1100 M
b1000 1
b1000 8
b1000 P
b1000 u
1"
#40
0"
#45
b10 B
1)
1&
b1 E
1"
#50
0"
#55
1,
1&
1)
b10 E
1"
#60
0"
#65
b0 B
0&
1,
1)
1("
b1001000 '"
b1001000 )"
1*
1"
#70
0"
#75
bx 6
bx H
0.
0'
b1001001 K
b1001001 y
0:
b0 Z
b0 \
b0 (
b0 D
b0 $"
b1001001 -
b1001001 C
b1001001 #"
b1001001 5
b1001001 =
b1001001 W
b1001001 i
b1001001 }
1L
1V
02
b0 I
b0 {
b0 0
b0 <
b0 J
b0 z
b0 !"
b1001001 Y
b1001001 ]
b10011 o
b0 v
b1001 w
b10 x
b0 j
b10011 l
b1001001 S
b1001001 s
b10011 r
b10000 N
b10000 t
b100100100000000000100010011 4
b100100100000000000100010011 7
b100100100000000000100010011 F
b100100100000000000100010011 q
0&
b0 B
0,
0)
b1010101 O
b10000 M
b1100 1
b1100 8
b1100 P
b1100 u
b0 E
b1001000 3"
1%"
b1 4"
1("
1*
1"
#80
0"
#85
1&
b1 B
1'
1:
b0 6
b0 H
1.
b11111111111111110000000000000000 K
b11111111111111110000000000000000 y
0""
b11111111111111110000000000000000 Z
b11111111111111110000000000000000 \
b1001001 (
b1001001 D
b1001001 $"
b11111111111111110000000000000000 -
b11111111111111110000000000000000 C
b11111111111111110000000000000000 #"
0U
b11111111111111110000000000000000 5
b11111111111111110000000000000000 =
b11111111111111110000000000000000 W
b11111111111111110000000000000000 i
b11111111111111110000000000000000 }
12
0L
1V
b11111111111111110000000000000000 I
b11111111111111110000000000000000 {
b1001001 0
b1001001 <
b1001001 J
b1001001 z
b1001001 !"
b0 Y
b0 ]
b100011 o
b1 v
b10 w
b0 x
b10 j
b100011 l
b0 S
b0 s
b100011 r
b10100 N
b10100 t
b1000001010000000100011 4
b1000001010000000100011 7
b1000001010000000100011 F
b1000001010000000100011 q
0("
0*
b1 2"
0!
b10000 O
b10100 M
b10000 1
b10000 8
b10000 P
b10000 u
1"
#90
0"
#95
b10 B
1)
1&
b1 E
b10 2"
1"
#100
0"
#105
1,
1&
1)
b11 2"
b10 E
1"
#110
0"
#115
b100 2"
1"
#120
0"
#125
b101 2"
1"
#130
0"
#135
b110 2"
1"
#140
0"
#145
b111 2"
1"
#150
0"
#155
b1000 2"
1"
#160
0"
#165
b1001 2"
1"
#170
0"
#175
b10 4"
b0 2"
1"
#180
0"
#185
b1 2"
1"
#190
0"
#195
b10 2"
1"
#200
0"
#205
b11 2"
1"
#210
0"
#215
b100 2"
1"
#220
0"
#225
b101 2"
1"
#230
0"
#235
b110 2"
1"
bx0 $
b0 %
#240
0"
#245
b111 2"
1"
#250
0"
#255
b1000 2"
1"
#260
0"
#265
b1001 2"
1"
#270
0"
#275
b1 1"
b0 2"
1"
#280
0"
#285
b1 2"
1"
#290
0"
#295
b10 2"
1"
#300
0"
#305
b11 2"
1"
#310
0"
#315
b100 2"
1"
#320
0"
#325
b101 2"
1"
#330
0"
#335
b110 2"
1"
bx00 $
b1 %
#340
0"
#345
b111 2"
1"
#350
0"
#355
b1000 2"
1"
#360
0"
#365
b1001 2"
1"
#370
0"
#375
b10 1"
b0 2"
1"
#380
0"
#385
b1 2"
1"
#390
0"
#395
b10 2"
1"
#400
0"
#405
b11 2"
1"
#410
0"
#415
b100 2"
1"
#420
0"
#425
b101 2"
1"
#430
0"
#435
b110 2"
1"
bx000 $
b10 %
#440
0"
#445
b111 2"
1"
#450
0"
#455
b1000 2"
1"
#460
0"
#465
b1001 2"
1"
#470
0"
#475
b11 1"
b0 2"
1"
#480
0"
#485
b1 2"
1!
1"
#490
0"
#495
b10 2"
1"
#500
0"
#505
b11 2"
1"
#510
0"
#515
b100 2"
1"
#520
0"
#525
b101 2"
1"
#530
0"
#535
b110 2"
1"
bx1000 $
b11 %
#540
0"
#545
b111 2"
1"
#550
0"
#555
b1000 2"
1"
#560
0"
#565
b1001 2"
1"
#570
0"
#575
b100 1"
b0 2"
1"
#580
0"
#585
b1 2"
0!
1"
#590
0"
#595
b10 2"
1"
#600
0"
#605
b11 2"
1"
#610
0"
#615
b100 2"
1"
#620
0"
#625
b101 2"
1"
#630
0"
#635
b110 2"
1"
bx01000 $
b100 %
#640
0"
#645
b111 2"
1"
#650
0"
#655
b1000 2"
1"
#660
0"
#665
b1001 2"
1"
#670
0"
#675
b101 1"
b0 2"
1"
#680
0"
#685
b1 2"
1"
#690
0"
#695
b10 2"
1"
#700
0"
#705
b11 2"
1"
#710
0"
#715
b100 2"
1"
#720
0"
#725
b101 2"
1"
#730
0"
#735
b110 2"
1"
bx001000 $
b101 %
#740
0"
#745
b111 2"
1"
#750
0"
#755
b1000 2"
1"
#760
0"
#765
b1001 2"
1"
#770
0"
#775
b110 1"
b0 2"
1"
#780
0"
#785
b1 2"
1!
1"
#790
0"
#795
b10 2"
1"
#800
0"
#805
b11 2"
1"
#810
0"
#815
b100 2"
1"
#820
0"
#825
b101 2"
1"
#830
0"
#835
b110 2"
1"
bx1001000 $
b110 %
#840
0"
#845
b111 2"
1"
#850
0"
#855
b1000 2"
1"
#860
0"
#865
b1001 2"
1"
#870
0"
#875
b111 1"
b0 2"
1"
#880
0"
#885
b1 2"
0!
1"
#890
0"
#895
b10 2"
1"
#900
0"
#905
b11 2"
1"
#910
0"
#915
b100 2"
1"
#920
0"
#925
b101 2"
1"
#930
0"
#935
b110 2"
1"
b1001000 $
b111 %
#940
0"
#945
b111 2"
1"
#950
0"
#955
b1000 2"
1"
#960
0"
#965
b1001 2"
1"
#970
0"
#975
b11 4"
b0 1"
b0 2"
1"
#980
0"
#985
b1 2"
1!
1"
#990
0"
#995
b10 2"
1"
#1000
0"
#1005
b11 2"
1"
#1010
0"
#1015
b100 2"
1"
#1020
0"
#1025
b101 2"
1"
#1030
0"
#1035
b110 2"
1"
b1000 %
#1040
0"
#1045
b111 2"
1"
#1050
0"
#1055
b1000 2"
1"
#1060
0"
#1065
b1001 2"
1"
#1070
0"
#1075
b0 4"
b0 2"
1"
#1080
0"
#1085
0%"
1"
#1090
0"
#1095
b0 B
0&
1,
1)
1("
b1001001 '"
b1001001 )"
1*
1"
#1100
0"
#1105
bx 6
bx H
b0 K
b0 y
0.
0'
b0 -
b0 C
b0 #"
1U
b0 5
b0 =
b0 W
b0 i
b0 }
0:
b0 Z
b0 \
b0 (
b0 D
b0 $"
1L
1V
02
b0 I
b0 {
b0 0
b0 <
b0 J
b0 z
b0 !"
b1101111 o
b0 v
b0 w
b0 j
b1101111 l
b1101111 r
0&
b0 B
0,
0)
b11000 N
b11000 t
b1101111 4
b1101111 7
b1101111 F
b1101111 q
1("
1*
b1001001 3"
1%"
b1 4"
b0 E
b10100 O
b11000 M
b10100 1
b10100 8
b10100 P
b10100 u
1"
#1110
0"
#1115
b110 K
b110 y
b110 -
b110 C
b110 #"
0U
b110 5
b110 =
b110 W
b110 i
b110 }
1L
1V
b110 Y
b110 ]
b10011 o
b110 w
b110 x
b10011 l
b110 S
b110 s
b10011 r
b11100 N
b11100 t
b11000000000001100010011 4
b11000000000001100010011 7
b11000000000001100010011 F
b11000000000001100010011 q
b11110 O
b11100 M
b11000 1
b11000 8
b11000 P
b11000 u
b1 2"
0!
0("
0*
1"
#1120
0"
#1125
b110 K
b110 y
b110 -
b110 C
b110 #"
0U
b110 5
b110 =
b110 W
b110 i
b110 }
b10 X
b10 m
b10 p
1L
0V
b110 Y
b110 ]
b110011 o
b11 v
b11 x
b110011 l
b0 S
b0 s
b110011 r
b110 (
b110 D
b110 $"
b100000 N
b100000 t
b11000011000000110110011 4
b11000011000000110110011 7
b11000011000000110110011 F
b11000011000000110110011 q
b110 0
b110 <
b110 J
b110 z
b110 !"
b10 2"
b11100 O
b100000 M
b11100 1
b11100 8
b11100 P
b11100 u
1"
#1130
0"
#1135
1U
b0 Y
b0 ]
b0 K
b0 y
b0 (
b0 D
b0 $"
b0 -
b0 C
b0 #"
0L
b0 X
b0 m
b0 p
b0 0
b0 <
b0 J
b0 z
b0 !"
b0 5
b0 =
b0 W
b0 i
b0 }
b0 o
b0 v
b0 w
b0 x
b0 l
b0 r
b0 Z
b0 \
b100100 N
b100100 t
b0 4
b0 7
b0 F
b0 q
b0 I
b0 {
b100000 O
b100100 M
b100000 1
b100000 8
b100000 P
b100000 u
b11 2"
1"
#1140
0"
#1145
bx K
bx y
x.
bx -
bx C
bx #"
xU
bx 5
bx =
bx W
bx i
bx }
bx Z
bx \
bx Y
bx ]
bx (
bx D
bx $"
bx I
bx {
bx 0
bx <
bx J
bx z
bx !"
bx o
bx v
bx w
bx x
bx j
xk
bx l
xR
bx r
b101000 N
b101000 t
bx 4
bx 7
bx F
bx q
b100 2"
b100100 O
b101000 M
b100100 1
b100100 8
b100100 P
b100100 u
1"
#1150
0"
#1155
b101100 N
b101100 t
b101000 O
b101100 M
b101000 1
b101000 8
b101000 P
b101000 u
b101 2"
1"
#1160
0"
#1165
b110000 N
b110000 t
b110 2"
b101100 O
b110000 M
b101100 1
b101100 8
b101100 P
b101100 u
1"
#1170
0"
#1175
b110100 N
b110100 t
b110000 O
b110100 M
b110000 1
b110000 8
b110000 P
b110000 u
b111 2"
1"
#1180
0"
#1185
b111000 N
b111000 t
b1000 2"
b110100 O
b111000 M
b110100 1
b110100 8
b110100 P
b110100 u
1"
#1190
0"
#1195
b111100 N
b111100 t
b111000 O
b111100 M
b111000 1
b111000 8
b111000 P
b111000 u
b1001 2"
1"
#1200
0"
#1205
b1000000 N
b1000000 t
b10 4"
b0 2"
b111100 O
b1000000 M
b111100 1
b111100 8
b111100 P
b111100 u
1"
#1210
0"
#1215
b1000100 N
b1000100 t
b1000000 O
b1000100 M
b1000000 1
b1000000 8
b1000000 P
b1000000 u
b1 2"
1!
1"
#1220
0"
#1225
b1001000 N
b1001000 t
b10 2"
b1000100 O
b1001000 M
b1000100 1
b1000100 8
b1000100 P
b1000100 u
1"
#1230
0"
#1235
b1001100 N
b1001100 t
b1001000 O
b1001100 M
b1001000 1
b1001000 8
b1001000 P
b1001000 u
b11 2"
1"
#1240
0"
#1245
b1010000 N
b1010000 t
b100 2"
b1001100 O
b1010000 M
b1001100 1
b1001100 8
b1001100 P
b1001100 u
1"
#1250
0"
#1255
b1010100 N
b1010100 t
b1010000 O
b1010100 M
b1010000 1
b1010000 8
b1010000 P
b1010000 u
b101 2"
1"
#1260
0"
#1265
b1011000 N
b1011000 t
b110 2"
b1010100 O
b1011000 M
b1010100 1
b1010100 8
b1010100 P
b1010100 u
1"
b1001001 $
b0 %
#1270
0"
#1275
b1011100 N
b1011100 t
b1011000 O
b1011100 M
b1011000 1
b1011000 8
b1011000 P
b1011000 u
b111 2"
1"
#1280
0"
#1285
b1100000 N
b1100000 t
b1000 2"
b1011100 O
b1100000 M
b1011100 1
b1011100 8
b1011100 P
b1011100 u
1"
#1290
0"
#1295
b1100100 N
b1100100 t
b1100000 O
b1100100 M
b1100000 1
b1100000 8
b1100000 P
b1100000 u
b1001 2"
1"
#1300
0"
#1305
b1101000 N
b1101000 t
b1 1"
b0 2"
b1100100 O
b1101000 M
b1100100 1
b1100100 8
b1100100 P
b1100100 u
1"
#1310
0"
#1315
b1101100 N
b1101100 t
b1101000 O
b1101100 M
b1101000 1
b1101000 8
b1101000 P
b1101000 u
b1 2"
0!
1"
#1320
0"
#1325
b1110000 N
b1110000 t
b10 2"
b1101100 O
b1110000 M
b1101100 1
b1101100 8
b1101100 P
b1101100 u
1"
#1330
0"
#1335
b1110100 N
b1110100 t
b1110000 O
b1110100 M
b1110000 1
b1110000 8
b1110000 P
b1110000 u
b11 2"
1"
#1340
0"
#1345
b1111000 N
b1111000 t
b100 2"
b1110100 O
b1111000 M
b1110100 1
b1110100 8
b1110100 P
b1110100 u
1"
#1350
0"
#1355
b1111100 N
b1111100 t
b1111000 O
b1111100 M
b1111000 1
b1111000 8
b1111000 P
b1111000 u
b101 2"
1"
#1360
0"
#1365
b10000000 N
b10000000 t
b110 2"
b1111100 O
b10000000 M
b1111100 1
b1111100 8
b1111100 P
b1111100 u
1"
b1 %
#1370
0"
#1375
b10000100 N
b10000100 t
b10000000 O
b10000100 M
b10000000 1
b10000000 8
b10000000 P
b10000000 u
b111 2"
1"
#1380
0"
#1385
b10001000 N
b10001000 t
b1000 2"
b10000100 O
b10001000 M
b10000100 1
b10000100 8
b10000100 P
b10000100 u
1"
#1390
0"
#1395
b10001100 N
b10001100 t
b10001000 O
b10001100 M
b10001000 1
b10001000 8
b10001000 P
b10001000 u
b1001 2"
1"
#1400
0"
#1405
b10010000 N
b10010000 t
b10 1"
b0 2"
b10001100 O
b10010000 M
b10001100 1
b10001100 8
b10001100 P
b10001100 u
1"
#1410
0"
#1415
b10010100 N
b10010100 t
b10010000 O
b10010100 M
b10010000 1
b10010000 8
b10010000 P
b10010000 u
b1 2"
1"
#1420
0"
#1425
b10011000 N
b10011000 t
b10 2"
b10010100 O
b10011000 M
b10010100 1
b10010100 8
b10010100 P
b10010100 u
1"
#1430
0"
#1435
b10011100 N
b10011100 t
b10011000 O
b10011100 M
b10011000 1
b10011000 8
b10011000 P
b10011000 u
b11 2"
1"
#1440
0"
#1445
b10100000 N
b10100000 t
b100 2"
b10011100 O
b10100000 M
b10011100 1
b10011100 8
b10011100 P
b10011100 u
1"
#1450
0"
#1455
b10100100 N
b10100100 t
b10100000 O
b10100100 M
b10100000 1
b10100000 8
b10100000 P
b10100000 u
b101 2"
1"
#1460
0"
#1465
b10101000 N
b10101000 t
b110 2"
b10100100 O
b10101000 M
b10100100 1
b10100100 8
b10100100 P
b10100100 u
1"
b10 %
#1470
0"
#1475
b10101100 N
b10101100 t
b10101000 O
b10101100 M
b10101000 1
b10101000 8
b10101000 P
b10101000 u
b111 2"
1"
#1480
0"
#1485
b10110000 N
b10110000 t
b1000 2"
b10101100 O
b10110000 M
b10101100 1
b10101100 8
b10101100 P
b10101100 u
1"
#1490
0"
#1495
b10110100 N
b10110100 t
b10110000 O
b10110100 M
b10110000 1
b10110000 8
b10110000 P
b10110000 u
b1001 2"
1"
#1500
0"
#1505
b10111000 N
b10111000 t
b11 1"
b0 2"
b10110100 O
b10111000 M
b10110100 1
b10110100 8
b10110100 P
b10110100 u
1"
#1510
0"
#1515
b10111100 N
b10111100 t
b10111000 O
b10111100 M
b10111000 1
b10111000 8
b10111000 P
b10111000 u
b1 2"
1!
1"
#1520
0"
#1525
b11000000 N
b11000000 t
b10 2"
b10111100 O
b11000000 M
b10111100 1
b10111100 8
b10111100 P
b10111100 u
1"
#1530
0"
#1535
b11000100 N
b11000100 t
b11000000 O
b11000100 M
b11000000 1
b11000000 8
b11000000 P
b11000000 u
b11 2"
1"
#1540
0"
#1545
b11001000 N
b11001000 t
b100 2"
b11000100 O
b11001000 M
b11000100 1
b11000100 8
b11000100 P
b11000100 u
1"
#1550
0"
#1555
b11001100 N
b11001100 t
b11001000 O
b11001100 M
b11001000 1
b11001000 8
b11001000 P
b11001000 u
b101 2"
1"
#1560
0"
#1565
b11010000 N
b11010000 t
b110 2"
b11001100 O
b11010000 M
b11001100 1
b11001100 8
b11001100 P
b11001100 u
1"
b11 %
#1570
0"
#1575
b11010100 N
b11010100 t
b11010000 O
b11010100 M
b11010000 1
b11010000 8
b11010000 P
b11010000 u
b111 2"
1"
#1580
0"
#1585
b11011000 N
b11011000 t
b1000 2"
b11010100 O
b11011000 M
b11010100 1
b11010100 8
b11010100 P
b11010100 u
1"
#1590
0"
#1595
b11011100 N
b11011100 t
b11011000 O
b11011100 M
b11011000 1
b11011000 8
b11011000 P
b11011000 u
b1001 2"
1"
#1600
0"
#1605
b11100000 N
b11100000 t
b100 1"
b0 2"
b11011100 O
b11100000 M
b11011100 1
b11011100 8
b11011100 P
b11011100 u
1"
#1610
0"
#1615
b11100100 N
b11100100 t
b11100000 O
b11100100 M
b11100000 1
b11100000 8
b11100000 P
b11100000 u
b1 2"
0!
1"
#1620
0"
#1625
b11101000 N
b11101000 t
b10 2"
b11100100 O
b11101000 M
b11100100 1
b11100100 8
b11100100 P
b11100100 u
1"
#1630
0"
#1635
b11101100 N
b11101100 t
b11101000 O
b11101100 M
b11101000 1
b11101000 8
b11101000 P
b11101000 u
b11 2"
1"
#1640
0"
#1645
b11110000 N
b11110000 t
b100 2"
b11101100 O
b11110000 M
b11101100 1
b11101100 8
b11101100 P
b11101100 u
1"
#1650
0"
#1655
b11110100 N
b11110100 t
b11110000 O
b11110100 M
b11110000 1
b11110000 8
b11110000 P
b11110000 u
b101 2"
1"
#1660
0"
#1665
b11111000 N
b11111000 t
b110 2"
b11110100 O
b11111000 M
b11110100 1
b11110100 8
b11110100 P
b11110100 u
1"
b100 %
#1670
0"
#1675
b11111100 N
b11111100 t
b11111000 O
b11111100 M
b11111000 1
b11111000 8
b11111000 P
b11111000 u
b111 2"
1"
#1680
0"
#1685
b100000000 N
b100000000 t
b1000 2"
b11111100 O
b100000000 M
b11111100 1
b11111100 8
b11111100 P
b11111100 u
1"
#1690
0"
#1695
b100000100 N
b100000100 t
b100000000 O
b100000100 M
b100000000 1
b100000000 8
b100000000 P
b100000000 u
b1001 2"
1"
#1700
0"
#1705
b100001000 N
b100001000 t
b101 1"
b0 2"
b100000100 O
b100001000 M
b100000100 1
b100000100 8
b100000100 P
b100000100 u
1"
#1710
0"
#1715
b100001100 N
b100001100 t
b100001000 O
b100001100 M
b100001000 1
b100001000 8
b100001000 P
b100001000 u
b1 2"
1"
#1720
0"
#1725
b100010000 N
b100010000 t
b10 2"
b100001100 O
b100010000 M
b100001100 1
b100001100 8
b100001100 P
b100001100 u
1"
#1730
0"
#1735
b100010100 N
b100010100 t
b100010000 O
b100010100 M
b100010000 1
b100010000 8
b100010000 P
b100010000 u
b11 2"
1"
#1740
0"
#1745
b100011000 N
b100011000 t
b100 2"
b100010100 O
b100011000 M
b100010100 1
b100010100 8
b100010100 P
b100010100 u
1"
#1750
0"
#1755
b100011100 N
b100011100 t
b100011000 O
b100011100 M
b100011000 1
b100011000 8
b100011000 P
b100011000 u
b101 2"
1"
#1760
0"
#1765
b100100000 N
b100100000 t
b110 2"
b100011100 O
b100100000 M
b100011100 1
b100011100 8
b100011100 P
b100011100 u
1"
b101 %
#1770
0"
#1775
b100100100 N
b100100100 t
b100100000 O
b100100100 M
b100100000 1
b100100000 8
b100100000 P
b100100000 u
b111 2"
1"
#1780
0"
#1785
b100101000 N
b100101000 t
b1000 2"
b100100100 O
b100101000 M
b100100100 1
b100100100 8
b100100100 P
b100100100 u
1"
#1790
0"
#1795
b100101100 N
b100101100 t
b100101000 O
b100101100 M
b100101000 1
b100101000 8
b100101000 P
b100101000 u
b1001 2"
1"
#1800
0"
#1805
b100110000 N
b100110000 t
b110 1"
b0 2"
b100101100 O
b100110000 M
b100101100 1
b100101100 8
b100101100 P
b100101100 u
1"
#1810
0"
#1815
b100110100 N
b100110100 t
b100110000 O
b100110100 M
b100110000 1
b100110000 8
b100110000 P
b100110000 u
b1 2"
1!
1"
#1820
0"
#1825
b100111000 N
b100111000 t
b10 2"
b100110100 O
b100111000 M
b100110100 1
b100110100 8
b100110100 P
b100110100 u
1"
#1830
0"
#1835
b100111100 N
b100111100 t
b100111000 O
b100111100 M
b100111000 1
b100111000 8
b100111000 P
b100111000 u
b11 2"
1"
#1840
0"
#1845
b101000000 N
b101000000 t
b100 2"
b100111100 O
b101000000 M
b100111100 1
b100111100 8
b100111100 P
b100111100 u
1"
#1850
0"
#1855
b101000100 N
b101000100 t
b101000000 O
b101000100 M
b101000000 1
b101000000 8
b101000000 P
b101000000 u
b101 2"
1"
#1860
0"
#1865
b101001000 N
b101001000 t
b110 2"
b101000100 O
b101001000 M
b101000100 1
b101000100 8
b101000100 P
b101000100 u
1"
b110 %
#1870
0"
#1875
b101001100 N
b101001100 t
b101001000 O
b101001100 M
b101001000 1
b101001000 8
b101001000 P
b101001000 u
b111 2"
1"
#1880
0"
#1885
b101010000 N
b101010000 t
b1000 2"
b101001100 O
b101010000 M
b101001100 1
b101001100 8
b101001100 P
b101001100 u
1"
#1890
0"
#1895
b101010100 N
b101010100 t
b101010000 O
b101010100 M
b101010000 1
b101010000 8
b101010000 P
b101010000 u
b1001 2"
1"
#1900
0"
#1905
b101011000 N
b101011000 t
b111 1"
b0 2"
b101010100 O
b101011000 M
b101010100 1
b101010100 8
b101010100 P
b101010100 u
1"
#1910
0"
#1915
b101011100 N
b101011100 t
b101011000 O
b101011100 M
b101011000 1
b101011000 8
b101011000 P
b101011000 u
b1 2"
0!
1"
#1920
0"
